%!PS-Adobe-2.0 EPSF-2.0
%%Title: /home/dehos/depots/cours_projets_l3/template/cdc_maquette1.dia
%%Creator: Dia v0.97.3
%%CreationDate: Tue Jan  6 14:12:40 2015
%%For: dehos
%%Orientation: Portrait
%%Magnification: 1.0000
%%BoundingBox: 0 0 1109 1109
%%BeginSetup
%%EndSetup
%%EndComments
%%BeginProlog
[ /.notdef /.notdef /.notdef /.notdef /.notdef /.notdef /.notdef /.notdef /.notdef /.notdef
/.notdef /.notdef /.notdef /.notdef /.notdef /.notdef /.notdef /.notdef /.notdef /.notdef
/.notdef /.notdef /.notdef /.notdef /.notdef /.notdef /.notdef /.notdef /.notdef /.notdef
/.notdef /.notdef /space /exclam /quotedbl /numbersign /dollar /percent /ampersand /quoteright
/parenleft /parenright /asterisk /plus /comma /hyphen /period /slash /zero /one
/two /three /four /five /six /seven /eight /nine /colon /semicolon
/less /equal /greater /question /at /A /B /C /D /E
/F /G /H /I /J /K /L /M /N /O
/P /Q /R /S /T /U /V /W /X /Y
/Z /bracketleft /backslash /bracketright /asciicircum /underscore /quoteleft /a /b /c
/d /e /f /g /h /i /j /k /l /m
/n /o /p /q /r /s /t /u /v /w
/x /y /z /braceleft /bar /braceright /asciitilde /.notdef /.notdef /.notdef
/.notdef /.notdef /.notdef /.notdef /.notdef /.notdef /.notdef /.notdef /.notdef /.notdef
/.notdef /.notdef /.notdef /.notdef /.notdef /.notdef /.notdef /.notdef /.notdef /.notdef
/.notdef /.notdef /.notdef /.notdef /.notdef /.notdef /.notdef /.notdef /.notdef /.notdef
/space /exclamdown /cent /sterling /currency /yen /brokenbar /section /dieresis /copyright
/ordfeminine /guillemotleft /logicalnot /hyphen /registered /macron /degree /plusminus /twosuperior /threesuperior
/acute /mu /paragraph /periodcentered /cedilla /onesuperior /ordmasculine /guillemotright /onequarter /onehalf
/threequarters /questiondown /Agrave /Aacute /Acircumflex /Atilde /Adieresis /Aring /AE /Ccedilla
/Egrave /Eacute /Ecircumflex /Edieresis /Igrave /Iacute /Icircumflex /Idieresis /Eth /Ntilde
/Ograve /Oacute /Ocircumflex /Otilde /Odieresis /multiply /Oslash /Ugrave /Uacute /Ucircumflex
/Udieresis /Yacute /Thorn /germandbls /agrave /aacute /acircumflex /atilde /adieresis /aring
/ae /ccedilla /egrave /eacute /ecircumflex /edieresis /igrave /iacute /icircumflex /idieresis
/eth /ntilde /ograve /oacute /ocircumflex /otilde /odieresis /divide /oslash /ugrave
/uacute /ucircumflex /udieresis /yacute /thorn /ydieresis] /isolatin1encoding exch def
/cp {closepath} bind def
/c {curveto} bind def
/f {fill} bind def
/a {arc} bind def
/ef {eofill} bind def
/ex {exch} bind def
/gr {grestore} bind def
/gs {gsave} bind def
/sa {save} bind def
/rs {restore} bind def
/l {lineto} bind def
/m {moveto} bind def
/rm {rmoveto} bind def
/n {newpath} bind def
/s {stroke} bind def
/sh {show} bind def
/slc {setlinecap} bind def
/slj {setlinejoin} bind def
/slw {setlinewidth} bind def
/srgb {setrgbcolor} bind def
/rot {rotate} bind def
/sc {scale} bind def
/sd {setdash} bind def
/ff {findfont} bind def
/sf {setfont} bind def
/scf {scalefont} bind def
/sw {stringwidth pop} bind def
/tr {translate} bind def

/ellipsedict 8 dict def
ellipsedict /mtrx matrix put
/ellipse
{ ellipsedict begin
   /endangle exch def
   /startangle exch def
   /yrad exch def
   /xrad exch def
   /y exch def
   /x exch def   /savematrix mtrx currentmatrix def
   x y tr xrad yrad sc
   0 0 1 startangle endangle arc
   savematrix setmatrix
   end
} def

/mergeprocs {
dup length
3 -1 roll
dup
length
dup
5 1 roll
3 -1 roll
add
array cvx
dup
3 -1 roll
0 exch
putinterval
dup
4 2 roll
putinterval
} bind def
/dpi_x 300 def
/dpi_y 300 def
/conicto {
    /to_y exch def
    /to_x exch def
    /conic_cntrl_y exch def
    /conic_cntrl_x exch def
    currentpoint
    /p0_y exch def
    /p0_x exch def
    /p1_x p0_x conic_cntrl_x p0_x sub 2 3 div mul add def
    /p1_y p0_y conic_cntrl_y p0_y sub 2 3 div mul add def
    /p2_x p1_x to_x p0_x sub 1 3 div mul add def
    /p2_y p1_y to_y p0_y sub 1 3 div mul add def
    p1_x p1_y p2_x p2_y to_x to_y curveto
} bind def
/start_ol { gsave 1.1 dpi_x div dup scale} bind def
/end_ol { closepath fill grestore } bind def
28.346000 -28.346000 scale
-4.950000 -44.050000 translate
%%EndProlog


0.100000 slw
[] 0 sd
[] 0 sd
0 slj
1.000000 1.000000 1.000000 srgb
n 31.000000 5.000000 m 31.000000 8.000000 l 44.000000 8.000000 l 44.000000 5.000000 l f
0.000000 0.000000 0.000000 srgb
n 31.000000 5.000000 m 31.000000 8.000000 l 44.000000 8.000000 l 44.000000 5.000000 l cp s
gsave 32.000000 7.000000 translate 0.035278 -0.035278 scale
start_ol
2912 5383 moveto
1771 2304 lineto
4057 2304 lineto
2912 5383 lineto
2437 6208 moveto
3391 6208 lineto
5760 0 lineto
4886 0 lineto
4319 1600 lineto
1517 1600 lineto
951 0 lineto
64 0 lineto
2437 6208 lineto
end_ol grestore 
gsave 32.771773 7.000000 translate 0.035278 -0.035278 scale
start_ol
1536 704 moveto
1536 -1792 lineto
768 -1792 lineto
768 4672 lineto
1536 4672 lineto
1536 3968 lineto
1777 4390 2144 4595 conicto
2512 4800 3022 4800 conicto
3869 4800 4398 4121 conicto
4928 3442 4928 2336 conicto
4928 1230 4398 551 conicto
3869 -128 3022 -128 conicto
2512 -128 2144 77 conicto
1777 282 1536 704 conicto
4096 2336 moveto
4096 3189 3754 3674 conicto
3413 4160 2816 4160 conicto
2219 4160 1877 3674 conicto
1536 3189 1536 2336 conicto
1536 1483 1877 997 conicto
2219 512 2816 512 conicto
3413 512 3754 997 conicto
4096 1483 4096 2336 conicto
end_ol grestore 
gsave 33.488595 7.000000 translate 0.035278 -0.035278 scale
start_ol
1536 704 moveto
1536 -1792 lineto
768 -1792 lineto
768 4672 lineto
1536 4672 lineto
1536 3968 lineto
1777 4390 2144 4595 conicto
2512 4800 3022 4800 conicto
3869 4800 4398 4121 conicto
4928 3442 4928 2336 conicto
4928 1230 4398 551 conicto
3869 -128 3022 -128 conicto
2512 -128 2144 77 conicto
1777 282 1536 704 conicto
4096 2336 moveto
4096 3189 3754 3674 conicto
3413 4160 2816 4160 conicto
2219 4160 1877 3674 conicto
1536 3189 1536 2336 conicto
1536 1483 1877 997 conicto
2219 512 2816 512 conicto
3413 512 3754 997 conicto
4096 1483 4096 2336 conicto
end_ol grestore 
gsave 34.205418 7.000000 translate 0.035278 -0.035278 scale
start_ol
3520 3968 moveto
3389 4034 3235 4065 conicto
3082 4096 2897 4096 conicto
2239 4096 1887 3677 conicto
1536 3259 1536 2475 conicto
1536 0 lineto
768 0 lineto
768 4672 lineto
1536 4672 lineto
1536 3968 lineto
1780 4390 2172 4595 conicto
2564 4800 3124 4800 conicto
3204 4800 3301 4784 conicto
3398 4768 3516 4736 conicto
3520 3968 lineto
end_ol grestore 
gsave 34.645007 7.000000 translate 0.035278 -0.035278 scale
start_ol
2594 4160 moveto
1986 4160 1633 3672 conicto
1280 3185 1280 2336 conicto
1280 1487 1631 999 conicto
1982 512 2594 512 conicto
3198 512 3551 1002 conicto
3904 1492 3904 2336 conicto
3904 3176 3551 3668 conicto
3198 4160 2594 4160 conicto
2592 4800 moveto
3593 4800 4164 4146 conicto
4736 3493 4736 2336 conicto
4736 1184 4164 528 conicto
3593 -128 2592 -128 conicto
1587 -128 1017 528 conicto
448 1184 448 2336 conicto
448 3493 1017 4146 conicto
1587 4800 2592 4800 conicto
end_ol grestore 
gsave 35.336859 7.000000 translate 0.035278 -0.035278 scale
start_ol
256 4672 moveto
1069 4672 lineto
2528 751 lineto
3987 4672 lineto
4800 4672 lineto
3049 0 lineto
2007 0 lineto
256 4672 lineto
end_ol grestore 
gsave 36.006230 7.000000 translate 0.035278 -0.035278 scale
start_ol
768 4672 moveto
1536 4672 lineto
1536 0 lineto
768 0 lineto
768 4672 lineto
768 6464 moveto
1536 6464 lineto
1536 5504 lineto
768 5504 lineto
768 6464 lineto
end_ol grestore 
gsave 36.320935 7.000000 translate 0.035278 -0.035278 scale
start_ol
3712 4544 moveto
3712 3840 lineto
3393 4000 3049 4080 conicto
2705 4160 2337 4160 conicto
1777 4160 1496 3985 conicto
1216 3810 1216 3459 conicto
1216 3192 1418 3040 conicto
1620 2888 2231 2750 conicto
2491 2691 lineto
3293 2514 3630 2192 conicto
3968 1871 3968 1294 conicto
3968 638 3451 255 conicto
2934 -128 2029 -128 conicto
1653 -128 1244 -48 conicto
836 32 384 192 conicto
384 960 lineto
815 736 1233 624 conicto
1651 512 2060 512 conicto
2609 512 2904 700 conicto
3200 888 3200 1230 conicto
3200 1547 2991 1716 conicto
2783 1885 2078 2041 conicto
1814 2104 lineto
1091 2254 769 2565 conicto
448 2877 448 3421 conicto
448 4081 912 4440 conicto
1376 4800 2229 4800 conicto
2652 4800 3024 4736 conicto
3397 4672 3712 4544 conicto
end_ol grestore 
gsave 36.907880 7.000000 translate 0.035278 -0.035278 scale
start_ol
768 4672 moveto
1536 4672 lineto
1536 0 lineto
768 0 lineto
768 4672 lineto
768 6464 moveto
1536 6464 lineto
1536 5504 lineto
768 5504 lineto
768 6464 lineto
end_ol grestore 
gsave 37.222586 7.000000 translate 0.035278 -0.035278 scale
start_ol
2594 4160 moveto
1986 4160 1633 3672 conicto
1280 3185 1280 2336 conicto
1280 1487 1631 999 conicto
1982 512 2594 512 conicto
3198 512 3551 1002 conicto
3904 1492 3904 2336 conicto
3904 3176 3551 3668 conicto
3198 4160 2594 4160 conicto
2592 4800 moveto
3593 4800 4164 4146 conicto
4736 3493 4736 2336 conicto
4736 1184 4164 528 conicto
3593 -128 2592 -128 conicto
1587 -128 1017 528 conicto
448 1184 448 2336 conicto
448 3493 1017 4146 conicto
1587 4800 2592 4800 conicto
end_ol grestore 
gsave 37.914438 7.000000 translate 0.035278 -0.035278 scale
start_ol
4672 2835 moveto
4672 0 lineto
3904 0 lineto
3904 2810 lineto
3904 3487 3646 3823 conicto
3388 4160 2872 4160 conicto
2252 4160 1894 3756 conicto
1536 3352 1536 2655 conicto
1536 0 lineto
768 0 lineto
768 4672 lineto
1536 4672 lineto
1536 3968 lineto
1811 4386 2183 4593 conicto
2556 4800 3044 4800 conicto
3847 4800 4259 4301 conicto
4672 3803 4672 2835 conicto
end_ol grestore 
gsave 38.628763 7.000000 translate 0.035278 -0.035278 scale
start_ol
4672 2835 moveto
4672 0 lineto
3904 0 lineto
3904 2810 lineto
3904 3487 3646 3823 conicto
3388 4160 2872 4160 conicto
2252 4160 1894 3756 conicto
1536 3352 1536 2655 conicto
1536 0 lineto
768 0 lineto
768 4672 lineto
1536 4672 lineto
1536 3968 lineto
1811 4386 2183 4593 conicto
2556 4800 3044 4800 conicto
3847 4800 4259 4301 conicto
4672 3803 4672 2835 conicto
end_ol grestore 
gsave 39.343089 7.000000 translate 0.035278 -0.035278 scale
start_ol
4736 2536 moveto
4736 2176 lineto
1280 2176 lineto
1329 1363 1745 937 conicto
2162 512 2906 512 conicto
3337 512 3741 624 conicto
4146 736 4544 960 conicto
4544 256 lineto
4136 68 3708 -30 conicto
3280 -128 2840 -128 conicto
1736 -128 1092 525 conicto
448 1179 448 2294 conicto
448 3446 1061 4123 conicto
1675 4800 2716 4800 conicto
3650 4800 4193 4191 conicto
4736 3582 4736 2536 conicto
3968 2752 moveto
3960 3394 3625 3777 conicto
3290 4160 2738 4160 conicto
2112 4160 1736 3790 conicto
1361 3420 1304 2748 conicto
3968 2752 lineto
end_ol grestore 
gsave 40.037438 7.000000 translate 0.035278 -0.035278 scale
start_ol
4415 3796 moveto
4701 4310 5099 4555 conicto
5498 4800 6037 4800 conicto
6764 4800 7158 4289 conicto
7552 3778 7552 2835 conicto
7552 0 lineto
6784 0 lineto
6784 2810 lineto
6784 3496 6547 3828 conicto
6311 4160 5826 4160 conicto
5233 4160 4888 3756 conicto
4544 3352 4544 2655 conicto
4544 0 lineto
3776 0 lineto
3776 2810 lineto
3776 3500 3539 3830 conicto
3303 4160 2809 4160 conicto
2225 4160 1880 3754 conicto
1536 3348 1536 2655 conicto
1536 0 lineto
768 0 lineto
768 4672 lineto
1536 4672 lineto
1536 3968 lineto
1797 4394 2162 4597 conicto
2527 4800 3029 4800 conicto
3536 4800 3890 4543 conicto
4245 4286 4415 3796 conicto
end_ol grestore 
gsave 41.136410 7.000000 translate 0.035278 -0.035278 scale
start_ol
4736 2536 moveto
4736 2176 lineto
1280 2176 lineto
1329 1363 1745 937 conicto
2162 512 2906 512 conicto
3337 512 3741 624 conicto
4146 736 4544 960 conicto
4544 256 lineto
4136 68 3708 -30 conicto
3280 -128 2840 -128 conicto
1736 -128 1092 525 conicto
448 1179 448 2294 conicto
448 3446 1061 4123 conicto
1675 4800 2716 4800 conicto
3650 4800 4193 4191 conicto
4736 3582 4736 2536 conicto
3968 2752 moveto
3960 3394 3625 3777 conicto
3290 4160 2738 4160 conicto
2112 4160 1736 3790 conicto
1361 3420 1304 2748 conicto
3968 2752 lineto
end_ol grestore 
gsave 41.830759 7.000000 translate 0.035278 -0.035278 scale
start_ol
4672 2835 moveto
4672 0 lineto
3904 0 lineto
3904 2810 lineto
3904 3487 3646 3823 conicto
3388 4160 2872 4160 conicto
2252 4160 1894 3756 conicto
1536 3352 1536 2655 conicto
1536 0 lineto
768 0 lineto
768 4672 lineto
1536 4672 lineto
1536 3968 lineto
1811 4386 2183 4593 conicto
2556 4800 3044 4800 conicto
3847 4800 4259 4301 conicto
4672 3803 4672 2835 conicto
end_ol grestore 
gsave 42.545085 7.000000 translate 0.035278 -0.035278 scale
start_ol
1536 6016 moveto
1536 4672 lineto
3136 4672 lineto
3136 4096 lineto
1536 4096 lineto
1536 1543 lineto
1536 968 1694 804 conicto
1853 640 2338 640 conicto
3136 640 lineto
3136 0 lineto
2338 0 lineto
1446 0 1107 332 conicto
768 665 768 1543 conicto
768 4096 lineto
192 4096 lineto
192 4672 lineto
768 4672 lineto
768 6016 lineto
1536 6016 lineto
end_ol grestore 
0.100000 slw
[] 0 sd
[] 0 sd
0 slj
1.000000 1.000000 1.000000 srgb
n 18.000000 5.000000 m 18.000000 8.000000 l 31.000000 8.000000 l 31.000000 5.000000 l f
0.000000 0.000000 0.000000 srgb
n 18.000000 5.000000 m 18.000000 8.000000 l 31.000000 8.000000 l 31.000000 5.000000 l cp s
gsave 20.000000 7.000000 translate 0.035278 -0.035278 scale
start_ol
2912 5383 moveto
1771 2304 lineto
4057 2304 lineto
2912 5383 lineto
2437 6208 moveto
3391 6208 lineto
5760 0 lineto
4886 0 lineto
4319 1600 lineto
1517 1600 lineto
951 0 lineto
64 0 lineto
2437 6208 lineto
end_ol grestore 
gsave 20.751797 7.000000 translate 0.035278 -0.035278 scale
start_ol
3840 3968 moveto
3840 6464 lineto
4608 6464 lineto
4608 0 lineto
3840 0 lineto
3840 704 lineto
3599 282 3231 77 conicto
2864 -128 2350 -128 conicto
1507 -128 977 551 conicto
448 1230 448 2336 conicto
448 3442 977 4121 conicto
1507 4800 2350 4800 conicto
2864 4800 3231 4595 conicto
3599 4390 3840 3968 conicto
1280 2336 moveto
1280 1483 1621 997 conicto
1962 512 2558 512 conicto
3154 512 3497 997 conicto
3840 1483 3840 2336 conicto
3840 3189 3497 3674 conicto
3154 4160 2558 4160 conicto
1962 4160 1621 3674 conicto
1280 3189 1280 2336 conicto
end_ol grestore 
gsave 21.468619 7.000000 translate 0.035278 -0.035278 scale
start_ol
4415 3796 moveto
4701 4310 5099 4555 conicto
5498 4800 6037 4800 conicto
6764 4800 7158 4289 conicto
7552 3778 7552 2835 conicto
7552 0 lineto
6784 0 lineto
6784 2810 lineto
6784 3496 6547 3828 conicto
6311 4160 5826 4160 conicto
5233 4160 4888 3756 conicto
4544 3352 4544 2655 conicto
4544 0 lineto
3776 0 lineto
3776 2810 lineto
3776 3500 3539 3830 conicto
3303 4160 2809 4160 conicto
2225 4160 1880 3754 conicto
1536 3348 1536 2655 conicto
1536 0 lineto
768 0 lineto
768 4672 lineto
1536 4672 lineto
1536 3968 lineto
1797 4394 2162 4597 conicto
2527 4800 3029 4800 conicto
3536 4800 3890 4543 conicto
4245 4286 4415 3796 conicto
end_ol grestore 
gsave 22.567591 7.000000 translate 0.035278 -0.035278 scale
start_ol
768 4672 moveto
1536 4672 lineto
1536 0 lineto
768 0 lineto
768 4672 lineto
768 6464 moveto
1536 6464 lineto
1536 5504 lineto
768 5504 lineto
768 6464 lineto
end_ol grestore 
gsave 22.882296 7.000000 translate 0.035278 -0.035278 scale
start_ol
4672 2835 moveto
4672 0 lineto
3904 0 lineto
3904 2810 lineto
3904 3487 3646 3823 conicto
3388 4160 2872 4160 conicto
2252 4160 1894 3756 conicto
1536 3352 1536 2655 conicto
1536 0 lineto
768 0 lineto
768 4672 lineto
1536 4672 lineto
1536 3968 lineto
1811 4386 2183 4593 conicto
2556 4800 3044 4800 conicto
3847 4800 4259 4301 conicto
4672 3803 4672 2835 conicto
end_ol grestore 
gsave 23.596622 7.000000 translate 0.035278 -0.035278 scale
start_ol
768 4672 moveto
1536 4672 lineto
1536 0 lineto
768 0 lineto
768 4672 lineto
768 6464 moveto
1536 6464 lineto
1536 5504 lineto
768 5504 lineto
768 6464 lineto
end_ol grestore 
gsave 23.911327 7.000000 translate 0.035278 -0.035278 scale
start_ol
3712 4544 moveto
3712 3840 lineto
3393 4000 3049 4080 conicto
2705 4160 2337 4160 conicto
1777 4160 1496 3985 conicto
1216 3810 1216 3459 conicto
1216 3192 1418 3040 conicto
1620 2888 2231 2750 conicto
2491 2691 lineto
3293 2514 3630 2192 conicto
3968 1871 3968 1294 conicto
3968 638 3451 255 conicto
2934 -128 2029 -128 conicto
1653 -128 1244 -48 conicto
836 32 384 192 conicto
384 960 lineto
815 736 1233 624 conicto
1651 512 2060 512 conicto
2609 512 2904 700 conicto
3200 888 3200 1230 conicto
3200 1547 2991 1716 conicto
2783 1885 2078 2041 conicto
1814 2104 lineto
1091 2254 769 2565 conicto
448 2877 448 3421 conicto
448 4081 912 4440 conicto
1376 4800 2229 4800 conicto
2652 4800 3024 4736 conicto
3397 4672 3712 4544 conicto
end_ol grestore 
gsave 24.498272 7.000000 translate 0.035278 -0.035278 scale
start_ol
1536 6016 moveto
1536 4672 lineto
3136 4672 lineto
3136 4096 lineto
1536 4096 lineto
1536 1543 lineto
1536 968 1694 804 conicto
1853 640 2338 640 conicto
3136 640 lineto
3136 0 lineto
2338 0 lineto
1446 0 1107 332 conicto
768 665 768 1543 conicto
768 4096 lineto
192 4096 lineto
192 4672 lineto
768 4672 lineto
768 6016 lineto
1536 6016 lineto
end_ol grestore 
gsave 24.940358 7.000000 translate 0.035278 -0.035278 scale
start_ol
3520 3968 moveto
3389 4034 3235 4065 conicto
3082 4096 2897 4096 conicto
2239 4096 1887 3677 conicto
1536 3259 1536 2475 conicto
1536 0 lineto
768 0 lineto
768 4672 lineto
1536 4672 lineto
1536 3968 lineto
1780 4390 2172 4595 conicto
2564 4800 3124 4800 conicto
3204 4800 3301 4784 conicto
3398 4768 3516 4736 conicto
3520 3968 lineto
end_ol grestore 
gsave 25.404917 7.000000 translate 0.035278 -0.035278 scale
start_ol
2834 2368 moveto
1921 2368 1568 2152 conicto
1216 1936 1216 1415 conicto
1216 999 1480 755 conicto
1744 512 2199 512 conicto
2826 512 3205 971 conicto
3584 1431 3584 2194 conicto
3584 2368 lineto
2834 2368 lineto
4352 2672 moveto
4352 0 lineto
3584 0 lineto
3584 704 lineto
3325 278 2938 75 conicto
2551 -128 1991 -128 conicto
1283 -128 865 275 conicto
448 678 448 1354 conicto
448 2143 970 2543 conicto
1492 2944 2527 2944 conicto
3584 2944 lineto
3584 3022 lineto
3584 3565 3238 3862 conicto
2892 4160 2267 4160 conicto
1870 4160 1493 4064 conicto
1116 3968 768 3776 conicto
768 4480 lineto
1187 4640 1581 4720 conicto
1975 4800 2348 4800 conicto
3356 4800 3854 4272 conicto
4352 3744 4352 2672 conicto
end_ol grestore 
gsave 26.096769 7.000000 translate 0.035278 -0.035278 scale
start_ol
1536 6016 moveto
1536 4672 lineto
3136 4672 lineto
3136 4096 lineto
1536 4096 lineto
1536 1543 lineto
1536 968 1694 804 conicto
1853 640 2338 640 conicto
3136 640 lineto
3136 0 lineto
2338 0 lineto
1446 0 1107 332 conicto
768 665 768 1543 conicto
768 4096 lineto
192 4096 lineto
192 4672 lineto
768 4672 lineto
768 6016 lineto
1536 6016 lineto
end_ol grestore 
gsave 26.538855 7.000000 translate 0.035278 -0.035278 scale
start_ol
768 4672 moveto
1536 4672 lineto
1536 0 lineto
768 0 lineto
768 4672 lineto
768 6464 moveto
1536 6464 lineto
1536 5504 lineto
768 5504 lineto
768 6464 lineto
end_ol grestore 
gsave 26.853560 7.000000 translate 0.035278 -0.035278 scale
start_ol
2594 4160 moveto
1986 4160 1633 3672 conicto
1280 3185 1280 2336 conicto
1280 1487 1631 999 conicto
1982 512 2594 512 conicto
3198 512 3551 1002 conicto
3904 1492 3904 2336 conicto
3904 3176 3551 3668 conicto
3198 4160 2594 4160 conicto
2592 4800 moveto
3593 4800 4164 4146 conicto
4736 3493 4736 2336 conicto
4736 1184 4164 528 conicto
3593 -128 2592 -128 conicto
1587 -128 1017 528 conicto
448 1184 448 2336 conicto
448 3493 1017 4146 conicto
1587 4800 2592 4800 conicto
end_ol grestore 
gsave 27.545412 7.000000 translate 0.035278 -0.035278 scale
start_ol
4672 2835 moveto
4672 0 lineto
3904 0 lineto
3904 2810 lineto
3904 3487 3646 3823 conicto
3388 4160 2872 4160 conicto
2252 4160 1894 3756 conicto
1536 3352 1536 2655 conicto
1536 0 lineto
768 0 lineto
768 4672 lineto
1536 4672 lineto
1536 3968 lineto
1811 4386 2183 4593 conicto
2556 4800 3044 4800 conicto
3847 4800 4259 4301 conicto
4672 3803 4672 2835 conicto
end_ol grestore 
0.100000 slw
[] 0 sd
[] 0 sd
0 slj
0.749020 0.749020 0.749020 srgb
n 5.000000 5.000000 m 5.000000 8.000000 l 18.000000 8.000000 l 18.000000 5.000000 l f
0.000000 0.000000 0.000000 srgb
n 5.000000 5.000000 m 5.000000 8.000000 l 18.000000 8.000000 l 18.000000 5.000000 l cp s
gsave 8.000000 7.000000 translate 0.035278 -0.035278 scale
start_ol
768 6208 moveto
1600 6208 lineto
1600 2446 lineto
1600 1451 1962 1013 conicto
2325 576 3138 576 conicto
3947 576 4309 1013 conicto
4672 1451 4672 2446 conicto
4672 6208 lineto
5504 6208 lineto
5504 2343 lineto
5504 1120 4905 496 conicto
4307 -128 3138 -128 conicto
1965 -128 1366 496 conicto
768 1120 768 2343 conicto
768 6208 lineto
end_ol grestore 
gsave 8.826724 7.000000 translate 0.035278 -0.035278 scale
start_ol
1536 6016 moveto
1536 4672 lineto
3136 4672 lineto
3136 4096 lineto
1536 4096 lineto
1536 1543 lineto
1536 968 1694 804 conicto
1853 640 2338 640 conicto
3136 640 lineto
3136 0 lineto
2338 0 lineto
1446 0 1107 332 conicto
768 665 768 1543 conicto
768 4096 lineto
192 4096 lineto
192 4672 lineto
768 4672 lineto
768 6016 lineto
1536 6016 lineto
end_ol grestore 
gsave 9.268809 7.000000 translate 0.035278 -0.035278 scale
start_ol
768 4672 moveto
1536 4672 lineto
1536 0 lineto
768 0 lineto
768 4672 lineto
768 6464 moveto
1536 6464 lineto
1536 5504 lineto
768 5504 lineto
768 6464 lineto
end_ol grestore 
gsave 9.583515 7.000000 translate 0.035278 -0.035278 scale
start_ol
768 6464 moveto
1536 6464 lineto
1536 0 lineto
768 0 lineto
768 6464 lineto
end_ol grestore 
gsave 9.898220 7.000000 translate 0.035278 -0.035278 scale
start_ol
768 4672 moveto
1536 4672 lineto
1536 0 lineto
768 0 lineto
768 4672 lineto
768 6464 moveto
1536 6464 lineto
1536 5504 lineto
768 5504 lineto
768 6464 lineto
end_ol grestore 
gsave 10.212925 7.000000 translate 0.035278 -0.035278 scale
start_ol
3712 4544 moveto
3712 3840 lineto
3393 4000 3049 4080 conicto
2705 4160 2337 4160 conicto
1777 4160 1496 3985 conicto
1216 3810 1216 3459 conicto
1216 3192 1418 3040 conicto
1620 2888 2231 2750 conicto
2491 2691 lineto
3293 2514 3630 2192 conicto
3968 1871 3968 1294 conicto
3968 638 3451 255 conicto
2934 -128 2029 -128 conicto
1653 -128 1244 -48 conicto
836 32 384 192 conicto
384 960 lineto
815 736 1233 624 conicto
1651 512 2060 512 conicto
2609 512 2904 700 conicto
3200 888 3200 1230 conicto
3200 1547 2991 1716 conicto
2783 1885 2078 2041 conicto
1814 2104 lineto
1091 2254 769 2565 conicto
448 2877 448 3421 conicto
448 4081 912 4440 conicto
1376 4800 2229 4800 conicto
2652 4800 3024 4736 conicto
3397 4672 3712 4544 conicto
end_ol grestore 
gsave 10.799870 7.000000 translate 0.035278 -0.035278 scale
start_ol
2834 2368 moveto
1921 2368 1568 2152 conicto
1216 1936 1216 1415 conicto
1216 999 1480 755 conicto
1744 512 2199 512 conicto
2826 512 3205 971 conicto
3584 1431 3584 2194 conicto
3584 2368 lineto
2834 2368 lineto
4352 2672 moveto
4352 0 lineto
3584 0 lineto
3584 704 lineto
3325 278 2938 75 conicto
2551 -128 1991 -128 conicto
1283 -128 865 275 conicto
448 678 448 1354 conicto
448 2143 970 2543 conicto
1492 2944 2527 2944 conicto
3584 2944 lineto
3584 3022 lineto
3584 3565 3238 3862 conicto
2892 4160 2267 4160 conicto
1870 4160 1493 4064 conicto
1116 3968 768 3776 conicto
768 4480 lineto
1187 4640 1581 4720 conicto
1975 4800 2348 4800 conicto
3356 4800 3854 4272 conicto
4352 3744 4352 2672 conicto
end_ol grestore 
gsave 11.491723 7.000000 translate 0.035278 -0.035278 scale
start_ol
1536 6016 moveto
1536 4672 lineto
3136 4672 lineto
3136 4096 lineto
1536 4096 lineto
1536 1543 lineto
1536 968 1694 804 conicto
1853 640 2338 640 conicto
3136 640 lineto
3136 0 lineto
2338 0 lineto
1446 0 1107 332 conicto
768 665 768 1543 conicto
768 4096 lineto
192 4096 lineto
192 4672 lineto
768 4672 lineto
768 6016 lineto
1536 6016 lineto
end_ol grestore 
gsave 11.933808 7.000000 translate 0.035278 -0.035278 scale
start_ol
768 4672 moveto
1536 4672 lineto
1536 0 lineto
768 0 lineto
768 4672 lineto
768 6464 moveto
1536 6464 lineto
1536 5504 lineto
768 5504 lineto
768 6464 lineto
end_ol grestore 
gsave 12.248514 7.000000 translate 0.035278 -0.035278 scale
start_ol
2594 4160 moveto
1986 4160 1633 3672 conicto
1280 3185 1280 2336 conicto
1280 1487 1631 999 conicto
1982 512 2594 512 conicto
3198 512 3551 1002 conicto
3904 1492 3904 2336 conicto
3904 3176 3551 3668 conicto
3198 4160 2594 4160 conicto
2592 4800 moveto
3593 4800 4164 4146 conicto
4736 3493 4736 2336 conicto
4736 1184 4164 528 conicto
3593 -128 2592 -128 conicto
1587 -128 1017 528 conicto
448 1184 448 2336 conicto
448 3493 1017 4146 conicto
1587 4800 2592 4800 conicto
end_ol grestore 
gsave 12.940366 7.000000 translate 0.035278 -0.035278 scale
start_ol
4672 2835 moveto
4672 0 lineto
3904 0 lineto
3904 2810 lineto
3904 3487 3646 3823 conicto
3388 4160 2872 4160 conicto
2252 4160 1894 3756 conicto
1536 3352 1536 2655 conicto
1536 0 lineto
768 0 lineto
768 4672 lineto
1536 4672 lineto
1536 3968 lineto
1811 4386 2183 4593 conicto
2556 4800 3044 4800 conicto
3847 4800 4259 4301 conicto
4672 3803 4672 2835 conicto
end_ol grestore 
0.100000 slw
[] 0 sd
[] 0 sd
0 slj
1.000000 1.000000 1.000000 srgb
n 5.000000 8.000000 m 5.000000 11.000000 l 42.000000 11.000000 l 42.000000 8.000000 l f
0.000000 0.000000 0.000000 srgb
n 5.000000 8.000000 m 5.000000 11.000000 l 42.000000 11.000000 l 42.000000 8.000000 l cp s
gsave 6.000000 10.000000 translate 0.035278 -0.035278 scale
start_ol
448 2688 moveto
2688 2688 lineto
2688 1984 lineto
448 1984 lineto
448 2688 lineto
end_ol grestore 
gsave 6.407119 10.000000 translate 0.035278 -0.035278 scale
start_ol
end_ol grestore 
gsave 6.766779 10.000000 translate 0.035278 -0.035278 scale
start_ol
1664 5504 moveto
1664 704 lineto
2686 704 lineto
3981 704 4582 1283 conicto
5184 1862 5184 3110 conicto
5184 4351 4582 4927 conicto
3981 5504 2686 5504 conicto
1664 5504 lineto
832 6208 moveto
2557 6208 lineto
4377 6208 5228 5457 conicto
6080 4707 6080 3110 conicto
6080 1505 5224 752 conicto
4369 0 2557 0 conicto
832 0 lineto
832 6208 lineto
end_ol grestore 
gsave 7.635960 10.000000 translate 0.035278 -0.035278 scale
start_ol
768 1834 moveto
768 4672 lineto
1536 4672 lineto
1536 1863 lineto
1536 1188 1793 850 conicto
2051 512 2566 512 conicto
3185 512 3544 915 conicto
3904 1318 3904 2014 conicto
3904 4672 lineto
4672 4672 lineto
4672 0 lineto
3904 0 lineto
3904 704 lineto
3625 282 3257 77 conicto
2889 -128 2403 -128 conicto
1600 -128 1184 372 conicto
768 872 768 1834 conicto
2695 4800 moveto
2695 4800 lineto
end_ol grestore 
gsave 8.350285 10.000000 translate 0.035278 -0.035278 scale
start_ol
6016 6464 moveto
6016 5824 lineto
5280 5824 lineto
4866 5824 4705 5661 conicto
4544 5498 4544 5075 conicto
4544 4672 lineto
5824 4672 lineto
5824 4096 lineto
4544 4096 lineto
4544 0 lineto
3776 0 lineto
3776 4096 lineto
1664 4096 lineto
1664 0 lineto
896 0 lineto
896 4096 lineto
192 4096 lineto
192 4672 lineto
896 4672 lineto
896 4993 lineto
896 5761 1259 6112 conicto
1622 6464 2410 6464 conicto
3136 6464 lineto
3136 5824 lineto
2400 5824 lineto
1986 5824 1823 5661 conicto
1664 5498 1664 5075 conicto
1664 4672 lineto
3776 4672 lineto
3776 4993 lineto
3776 5761 4139 6112 conicto
4502 6464 5290 6464 conicto
6016 6464 lineto
end_ol grestore 
gsave 9.127053 10.000000 translate 0.035278 -0.035278 scale
start_ol
end_ol grestore 
0.100000 slw
[] 0 sd
[] 0 sd
0 slj
1.000000 1.000000 1.000000 srgb
n 32.000000 8.000000 m 32.000000 11.000000 l 37.000000 11.000000 l 37.000000 8.000000 l f
0.000000 0.000000 0.000000 srgb
n 32.000000 8.000000 m 32.000000 11.000000 l 37.000000 11.000000 l 37.000000 8.000000 l cp s
gsave 34.000000 10.000000 translate 0.035278 -0.035278 scale
start_ol
3904 5312 moveto
3904 3008 lineto
6208 3008 lineto
6208 2304 lineto
3904 2304 lineto
3904 0 lineto
3200 0 lineto
3200 2304 lineto
896 2304 lineto
896 3008 lineto
3200 3008 lineto
3200 5312 lineto
3904 5312 lineto
end_ol grestore 
0.100000 slw
[] 0 sd
[] 0 sd
0 slj
1.000000 1.000000 1.000000 srgb
n 37.000000 8.000000 m 37.000000 11.000000 l 42.000000 11.000000 l 42.000000 8.000000 l f
0.000000 0.000000 0.000000 srgb
n 37.000000 8.000000 m 37.000000 11.000000 l 42.000000 11.000000 l 42.000000 8.000000 l cp s
gsave 39.000000 10.000000 translate 0.035278 -0.035278 scale
start_ol
448 2688 moveto
2688 2688 lineto
2688 1984 lineto
448 1984 lineto
448 2688 lineto
end_ol grestore 
0.100000 slw
[] 0 sd
[] 0 sd
0 slj
1.000000 1.000000 1.000000 srgb
n 42.000000 8.000000 m 42.000000 44.000000 l 44.000000 44.000000 l 44.000000 8.000000 l f
0.000000 0.000000 0.000000 srgb
n 42.000000 8.000000 m 42.000000 44.000000 l 44.000000 44.000000 l 44.000000 8.000000 l cp s
0.100000 slw
[] 0 sd
[] 0 sd
0 slj
1.000000 1.000000 1.000000 srgb
n 5.000000 14.000000 m 5.000000 44.000000 l 42.000000 44.000000 l 42.000000 14.000000 l f
0.000000 0.000000 0.000000 srgb
n 5.000000 14.000000 m 5.000000 44.000000 l 42.000000 44.000000 l 42.000000 14.000000 l cp s
0.100000 slw
[] 0 sd
[] 0 sd
0 slc
n 43.000000 42.450000 m 43.000000 9.550000 l s
0 slj
n 42.750000 42.450000 m 43.000000 42.950000 l 43.250000 42.450000 l ef
0.100000 slw
[] 0 sd
0 slj
n 42.750000 42.450000 m 43.000000 42.950000 l 43.250000 42.450000 l cp s
0 slj
n 43.250000 9.550000 m 43.000000 9.050000 l 42.750000 9.550000 l ef
0.100000 slw
[] 0 sd
0 slj
n 43.250000 9.550000 m 43.000000 9.050000 l 42.750000 9.550000 l cp s
0.100000 slw
[] 0 sd
[] 0 sd
0 slj
1.000000 1.000000 1.000000 srgb
n 5.000000 11.000000 m 5.000000 14.000000 l 42.000000 14.000000 l 42.000000 11.000000 l f
0.000000 0.000000 0.000000 srgb
n 5.000000 11.000000 m 5.000000 14.000000 l 42.000000 14.000000 l 42.000000 11.000000 l cp s
gsave 6.000000 13.000000 translate 0.035278 -0.035278 scale
start_ol
448 2688 moveto
2688 2688 lineto
2688 1984 lineto
448 1984 lineto
448 2688 lineto
end_ol grestore 
gsave 6.407119 13.000000 translate 0.035278 -0.035278 scale
start_ol
end_ol grestore 
gsave 6.766779 13.000000 translate 0.035278 -0.035278 scale
start_ol
256 6208 moveto
1106 6208 lineto
2414 961 lineto
3717 6208 lineto
4663 6208 lineto
5970 961 lineto
7274 6208 lineto
8128 6208 lineto
6566 0 lineto
5508 0 lineto
4196 5389 lineto
2872 0 lineto
1814 0 lineto
256 6208 lineto
end_ol grestore 
gsave 7.818291 13.000000 translate 0.035278 -0.035278 scale
start_ol
4736 2536 moveto
4736 2176 lineto
1280 2176 lineto
1329 1363 1745 937 conicto
2162 512 2906 512 conicto
3337 512 3741 624 conicto
4146 736 4544 960 conicto
4544 256 lineto
4136 68 3708 -30 conicto
3280 -128 2840 -128 conicto
1736 -128 1092 525 conicto
448 1179 448 2294 conicto
448 3446 1061 4123 conicto
1675 4800 2716 4800 conicto
3650 4800 4193 4191 conicto
4736 3582 4736 2536 conicto
3968 2752 moveto
3960 3394 3625 3777 conicto
3290 4160 2738 4160 conicto
2112 4160 1736 3790 conicto
1361 3420 1304 2748 conicto
3968 2752 lineto
end_ol grestore 
gsave 8.512640 13.000000 translate 0.035278 -0.035278 scale
start_ol
3712 4544 moveto
3712 3840 lineto
3393 4000 3049 4080 conicto
2705 4160 2337 4160 conicto
1777 4160 1496 3985 conicto
1216 3810 1216 3459 conicto
1216 3192 1418 3040 conicto
1620 2888 2231 2750 conicto
2491 2691 lineto
3293 2514 3630 2192 conicto
3968 1871 3968 1294 conicto
3968 638 3451 255 conicto
2934 -128 2029 -128 conicto
1653 -128 1244 -48 conicto
836 32 384 192 conicto
384 960 lineto
815 736 1233 624 conicto
1651 512 2060 512 conicto
2609 512 2904 700 conicto
3200 888 3200 1230 conicto
3200 1547 2991 1716 conicto
2783 1885 2078 2041 conicto
1814 2104 lineto
1091 2254 769 2565 conicto
448 2877 448 3421 conicto
448 4081 912 4440 conicto
1376 4800 2229 4800 conicto
2652 4800 3024 4736 conicto
3397 4672 3712 4544 conicto
end_ol grestore 
gsave 9.099585 13.000000 translate 0.035278 -0.035278 scale
start_ol
1536 6016 moveto
1536 4672 lineto
3136 4672 lineto
3136 4096 lineto
1536 4096 lineto
1536 1543 lineto
1536 968 1694 804 conicto
1853 640 2338 640 conicto
3136 640 lineto
3136 0 lineto
2338 0 lineto
1446 0 1107 332 conicto
768 665 768 1543 conicto
768 4096 lineto
192 4096 lineto
192 4672 lineto
768 4672 lineto
768 6016 lineto
1536 6016 lineto
end_ol grestore 
gsave 9.541671 13.000000 translate 0.035278 -0.035278 scale
start_ol
256 4672 moveto
1069 4672 lineto
2528 751 lineto
3987 4672 lineto
4800 4672 lineto
3049 0 lineto
2007 0 lineto
256 4672 lineto
end_ol grestore 
gsave 10.211042 13.000000 translate 0.035278 -0.035278 scale
start_ol
768 6464 moveto
1536 6464 lineto
1536 0 lineto
768 0 lineto
768 6464 lineto
end_ol grestore 
gsave 10.525748 13.000000 translate 0.035278 -0.035278 scale
start_ol
4736 2536 moveto
4736 2176 lineto
1280 2176 lineto
1329 1363 1745 937 conicto
2162 512 2906 512 conicto
3337 512 3741 624 conicto
4146 736 4544 960 conicto
4544 256 lineto
4136 68 3708 -30 conicto
3280 -128 2840 -128 conicto
1736 -128 1092 525 conicto
448 1179 448 2294 conicto
448 3446 1061 4123 conicto
1675 4800 2716 4800 conicto
3650 4800 4193 4191 conicto
4736 3582 4736 2536 conicto
3968 2752 moveto
3960 3394 3625 3777 conicto
3290 4160 2738 4160 conicto
2112 4160 1736 3790 conicto
1361 3420 1304 2748 conicto
3968 2752 lineto
end_ol grestore 
gsave 11.220097 13.000000 translate 0.035278 -0.035278 scale
start_ol
1536 6016 moveto
1536 4672 lineto
3136 4672 lineto
3136 4096 lineto
1536 4096 lineto
1536 1543 lineto
1536 968 1694 804 conicto
1853 640 2338 640 conicto
3136 640 lineto
3136 0 lineto
2338 0 lineto
1446 0 1107 332 conicto
768 665 768 1543 conicto
768 4096 lineto
192 4096 lineto
192 4672 lineto
768 4672 lineto
768 6016 lineto
1536 6016 lineto
end_ol grestore 
gsave 11.662183 13.000000 translate 0.035278 -0.035278 scale
start_ol
4736 2536 moveto
4736 2176 lineto
1280 2176 lineto
1329 1363 1745 937 conicto
2162 512 2906 512 conicto
3337 512 3741 624 conicto
4146 736 4544 960 conicto
4544 256 lineto
4136 68 3708 -30 conicto
3280 -128 2840 -128 conicto
1736 -128 1092 525 conicto
448 1179 448 2294 conicto
448 3446 1061 4123 conicto
1675 4800 2716 4800 conicto
3650 4800 4193 4191 conicto
4736 3582 4736 2536 conicto
3968 2752 moveto
3960 3394 3625 3777 conicto
3290 4160 2738 4160 conicto
2112 4160 1736 3790 conicto
1361 3420 1304 2748 conicto
3968 2752 lineto
end_ol grestore 
gsave 12.356532 13.000000 translate 0.035278 -0.035278 scale
start_ol
3520 3968 moveto
3389 4034 3235 4065 conicto
3082 4096 2897 4096 conicto
2239 4096 1887 3677 conicto
1536 3259 1536 2475 conicto
1536 0 lineto
768 0 lineto
768 4672 lineto
1536 4672 lineto
1536 3968 lineto
1780 4390 2172 4595 conicto
2564 4800 3124 4800 conicto
3204 4800 3301 4784 conicto
3398 4768 3516 4736 conicto
3520 3968 lineto
end_ol grestore 
gsave 12.796121 13.000000 translate 0.035278 -0.035278 scale
start_ol
4736 2536 moveto
4736 2176 lineto
1280 2176 lineto
1329 1363 1745 937 conicto
2162 512 2906 512 conicto
3337 512 3741 624 conicto
4146 736 4544 960 conicto
4544 256 lineto
4136 68 3708 -30 conicto
3280 -128 2840 -128 conicto
1736 -128 1092 525 conicto
448 1179 448 2294 conicto
448 3446 1061 4123 conicto
1675 4800 2716 4800 conicto
3650 4800 4193 4191 conicto
4736 3582 4736 2536 conicto
3968 2752 moveto
3960 3394 3625 3777 conicto
3290 4160 2738 4160 conicto
2112 4160 1736 3790 conicto
1361 3420 1304 2748 conicto
3968 2752 lineto
end_ol grestore 
gsave 13.490470 13.000000 translate 0.035278 -0.035278 scale
start_ol
4672 2835 moveto
4672 0 lineto
3904 0 lineto
3904 2810 lineto
3904 3487 3646 3823 conicto
3388 4160 2872 4160 conicto
2252 4160 1894 3756 conicto
1536 3352 1536 2655 conicto
1536 0 lineto
768 0 lineto
768 4672 lineto
1536 4672 lineto
1536 3968 lineto
1811 4386 2183 4593 conicto
2556 4800 3044 4800 conicto
3847 4800 4259 4301 conicto
4672 3803 4672 2835 conicto
end_ol grestore 
0.100000 slw
[] 0 sd
[] 0 sd
0 slj
1.000000 1.000000 1.000000 srgb
n 32.000000 11.000000 m 32.000000 14.000000 l 37.000000 14.000000 l 37.000000 11.000000 l f
0.000000 0.000000 0.000000 srgb
n 32.000000 11.000000 m 32.000000 14.000000 l 37.000000 14.000000 l 37.000000 11.000000 l cp s
gsave 34.000000 13.000000 translate 0.035278 -0.035278 scale
start_ol
3904 5312 moveto
3904 3008 lineto
6208 3008 lineto
6208 2304 lineto
3904 2304 lineto
3904 0 lineto
3200 0 lineto
3200 2304 lineto
896 2304 lineto
896 3008 lineto
3200 3008 lineto
3200 5312 lineto
3904 5312 lineto
end_ol grestore 
0.100000 slw
[] 0 sd
[] 0 sd
0 slj
1.000000 1.000000 1.000000 srgb
n 37.000000 11.000000 m 37.000000 14.000000 l 42.000000 14.000000 l 42.000000 11.000000 l f
0.000000 0.000000 0.000000 srgb
n 37.000000 11.000000 m 37.000000 14.000000 l 42.000000 14.000000 l 42.000000 11.000000 l cp s
gsave 39.000000 13.000000 translate 0.035278 -0.035278 scale
start_ol
448 2688 moveto
2688 2688 lineto
2688 1984 lineto
448 1984 lineto
448 2688 lineto
end_ol grestore 
gsave 23.000000 10.000000 translate 0.035278 -0.035278 scale
start_ol
1088 640 moveto
2432 640 lineto
2432 5568 lineto
960 5248 lineto
960 5888 lineto
2431 6208 lineto
3264 6208 lineto
3264 640 lineto
4608 640 lineto
4608 0 lineto
1088 0 lineto
1088 640 lineto
end_ol grestore 
gsave 23.719328 10.000000 translate 0.035278 -0.035278 scale
start_ol
1668 640 moveto
4577 640 lineto
4577 0 lineto
640 0 lineto
640 640 lineto
1119 1150 1946 2009 conicto
2774 2868 2987 3117 conicto
3391 3584 3551 3907 conicto
3712 4231 3712 4543 conicto
3712 5053 3366 5374 conicto
3021 5696 2467 5696 conicto
2074 5696 1637 5553 conicto
1201 5410 704 5120 conicto
704 5952 lineto
1208 6142 1645 6239 conicto
2083 6336 2446 6336 conicto
3404 6336 3974 5846 conicto
4544 5357 4544 4539 conicto
4544 4150 4401 3802 conicto
4259 3454 3884 2982 conicto
3781 2859 3228 2275 conicto
2675 1691 1668 640 conicto
end_ol grestore 
gsave 24.438655 10.000000 translate 0.035278 -0.035278 scale
start_ol
end_ol grestore 
gsave 24.798315 10.000000 translate 0.035278 -0.035278 scale
start_ol
4096 2336 moveto
4096 3189 3754 3674 conicto
3413 4160 2816 4160 conicto
2219 4160 1877 3674 conicto
1536 3189 1536 2336 conicto
1536 1483 1877 997 conicto
2219 512 2816 512 conicto
3413 512 3754 997 conicto
4096 1483 4096 2336 conicto
1536 3968 moveto
1777 4390 2144 4595 conicto
2512 4800 3022 4800 conicto
3869 4800 4398 4121 conicto
4928 3442 4928 2336 conicto
4928 1230 4398 551 conicto
3869 -128 3022 -128 conicto
2512 -128 2144 77 conicto
1777 282 1536 704 conicto
1536 0 lineto
768 0 lineto
768 6464 lineto
1536 6464 lineto
1536 3968 lineto
end_ol grestore 
gsave 25.515137 10.000000 translate 0.035278 -0.035278 scale
start_ol
2594 4160 moveto
1986 4160 1633 3672 conicto
1280 3185 1280 2336 conicto
1280 1487 1631 999 conicto
1982 512 2594 512 conicto
3198 512 3551 1002 conicto
3904 1492 3904 2336 conicto
3904 3176 3551 3668 conicto
3198 4160 2594 4160 conicto
2592 4800 moveto
3593 4800 4164 4146 conicto
4736 3493 4736 2336 conicto
4736 1184 4164 528 conicto
3593 -128 2592 -128 conicto
1587 -128 1017 528 conicto
448 1184 448 2336 conicto
448 3493 1017 4146 conicto
1587 4800 2592 4800 conicto
end_ol grestore 
gsave 26.206990 10.000000 translate 0.035278 -0.035278 scale
start_ol
768 1834 moveto
768 4672 lineto
1536 4672 lineto
1536 1863 lineto
1536 1188 1793 850 conicto
2051 512 2566 512 conicto
3185 512 3544 915 conicto
3904 1318 3904 2014 conicto
3904 4672 lineto
4672 4672 lineto
4672 0 lineto
3904 0 lineto
3904 704 lineto
3625 282 3257 77 conicto
2889 -128 2403 -128 conicto
1600 -128 1184 372 conicto
768 872 768 1834 conicto
2695 4800 moveto
2695 4800 lineto
end_ol grestore 
gsave 26.921315 10.000000 translate 0.035278 -0.035278 scale
start_ol
1536 6016 moveto
1536 4672 lineto
3136 4672 lineto
3136 4096 lineto
1536 4096 lineto
1536 1543 lineto
1536 968 1694 804 conicto
1853 640 2338 640 conicto
3136 640 lineto
3136 0 lineto
2338 0 lineto
1446 0 1107 332 conicto
768 665 768 1543 conicto
768 4096 lineto
192 4096 lineto
192 4672 lineto
768 4672 lineto
768 6016 lineto
1536 6016 lineto
end_ol grestore 
gsave 27.363401 10.000000 translate 0.035278 -0.035278 scale
start_ol
4736 2536 moveto
4736 2176 lineto
1280 2176 lineto
1329 1363 1745 937 conicto
2162 512 2906 512 conicto
3337 512 3741 624 conicto
4146 736 4544 960 conicto
4544 256 lineto
4136 68 3708 -30 conicto
3280 -128 2840 -128 conicto
1736 -128 1092 525 conicto
448 1179 448 2294 conicto
448 3446 1061 4123 conicto
1675 4800 2716 4800 conicto
3650 4800 4193 4191 conicto
4736 3582 4736 2536 conicto
3968 2752 moveto
3960 3394 3625 3777 conicto
3290 4160 2738 4160 conicto
2112 4160 1736 3790 conicto
1361 3420 1304 2748 conicto
3968 2752 lineto
end_ol grestore 
gsave 28.057750 10.000000 translate 0.035278 -0.035278 scale
start_ol
768 4672 moveto
1536 4672 lineto
1536 0 lineto
768 0 lineto
768 4672 lineto
768 6464 moveto
1536 6464 lineto
1536 5504 lineto
768 5504 lineto
768 6464 lineto
end_ol grestore 
gsave 28.372456 10.000000 translate 0.035278 -0.035278 scale
start_ol
768 6464 moveto
1536 6464 lineto
1536 0 lineto
768 0 lineto
768 6464 lineto
end_ol grestore 
gsave 28.687161 10.000000 translate 0.035278 -0.035278 scale
start_ol
768 6464 moveto
1536 6464 lineto
1536 0 lineto
768 0 lineto
768 6464 lineto
end_ol grestore 
gsave 29.001866 10.000000 translate 0.035278 -0.035278 scale
start_ol
4736 2536 moveto
4736 2176 lineto
1280 2176 lineto
1329 1363 1745 937 conicto
2162 512 2906 512 conicto
3337 512 3741 624 conicto
4146 736 4544 960 conicto
4544 256 lineto
4136 68 3708 -30 conicto
3280 -128 2840 -128 conicto
1736 -128 1092 525 conicto
448 1179 448 2294 conicto
448 3446 1061 4123 conicto
1675 4800 2716 4800 conicto
3650 4800 4193 4191 conicto
4736 3582 4736 2536 conicto
3968 2752 moveto
3960 3394 3625 3777 conicto
3290 4160 2738 4160 conicto
2112 4160 1736 3790 conicto
1361 3420 1304 2748 conicto
3968 2752 lineto
end_ol grestore 
gsave 29.696216 10.000000 translate 0.035278 -0.035278 scale
start_ol
3712 4544 moveto
3712 3840 lineto
3393 4000 3049 4080 conicto
2705 4160 2337 4160 conicto
1777 4160 1496 3985 conicto
1216 3810 1216 3459 conicto
1216 3192 1418 3040 conicto
1620 2888 2231 2750 conicto
2491 2691 lineto
3293 2514 3630 2192 conicto
3968 1871 3968 1294 conicto
3968 638 3451 255 conicto
2934 -128 2029 -128 conicto
1653 -128 1244 -48 conicto
836 32 384 192 conicto
384 960 lineto
815 736 1233 624 conicto
1651 512 2060 512 conicto
2609 512 2904 700 conicto
3200 888 3200 1230 conicto
3200 1547 2991 1716 conicto
2783 1885 2078 2041 conicto
1814 2104 lineto
1091 2254 769 2565 conicto
448 2877 448 3421 conicto
448 4081 912 4440 conicto
1376 4800 2229 4800 conicto
2652 4800 3024 4736 conicto
3397 4672 3712 4544 conicto
end_ol grestore 
gsave 23.000000 13.000000 translate 0.035278 -0.035278 scale
start_ol
end_ol grestore 
gsave 23.359660 13.000000 translate 0.035278 -0.035278 scale
start_ol
end_ol grestore 
gsave 23.719319 13.000000 translate 0.035278 -0.035278 scale
start_ol
896 6208 moveto
4224 6208 lineto
4224 5568 lineto
1728 5568 lineto
1728 3983 lineto
1908 4039 2088 4067 conicto
2269 4096 2450 4096 conicto
3475 4096 4073 3526 conicto
4672 2957 4672 1984 conicto
4672 982 4046 427 conicto
3420 -128 2280 -128 conicto
1888 -128 1481 -64 conicto
1074 0 640 128 conicto
640 960 lineto
1017 734 1419 623 conicto
1821 512 2269 512 conicto
2994 512 3417 908 conicto
3840 1305 3840 1984 conicto
3840 2663 3416 3059 conicto
2992 3456 2265 3456 conicto
1925 3456 1587 3378 conicto
1249 3300 896 3136 conicto
896 6208 lineto
end_ol grestore 
gsave 24.438647 13.000000 translate 0.035278 -0.035278 scale
start_ol
end_ol grestore 
gsave 24.798307 13.000000 translate 0.035278 -0.035278 scale
start_ol
4096 2336 moveto
4096 3189 3754 3674 conicto
3413 4160 2816 4160 conicto
2219 4160 1877 3674 conicto
1536 3189 1536 2336 conicto
1536 1483 1877 997 conicto
2219 512 2816 512 conicto
3413 512 3754 997 conicto
4096 1483 4096 2336 conicto
1536 3968 moveto
1777 4390 2144 4595 conicto
2512 4800 3022 4800 conicto
3869 4800 4398 4121 conicto
4928 3442 4928 2336 conicto
4928 1230 4398 551 conicto
3869 -128 3022 -128 conicto
2512 -128 2144 77 conicto
1777 282 1536 704 conicto
1536 0 lineto
768 0 lineto
768 6464 lineto
1536 6464 lineto
1536 3968 lineto
end_ol grestore 
gsave 25.515129 13.000000 translate 0.035278 -0.035278 scale
start_ol
2594 4160 moveto
1986 4160 1633 3672 conicto
1280 3185 1280 2336 conicto
1280 1487 1631 999 conicto
1982 512 2594 512 conicto
3198 512 3551 1002 conicto
3904 1492 3904 2336 conicto
3904 3176 3551 3668 conicto
3198 4160 2594 4160 conicto
2592 4800 moveto
3593 4800 4164 4146 conicto
4736 3493 4736 2336 conicto
4736 1184 4164 528 conicto
3593 -128 2592 -128 conicto
1587 -128 1017 528 conicto
448 1184 448 2336 conicto
448 3493 1017 4146 conicto
1587 4800 2592 4800 conicto
end_ol grestore 
gsave 26.206982 13.000000 translate 0.035278 -0.035278 scale
start_ol
768 1834 moveto
768 4672 lineto
1536 4672 lineto
1536 1863 lineto
1536 1188 1793 850 conicto
2051 512 2566 512 conicto
3185 512 3544 915 conicto
3904 1318 3904 2014 conicto
3904 4672 lineto
4672 4672 lineto
4672 0 lineto
3904 0 lineto
3904 704 lineto
3625 282 3257 77 conicto
2889 -128 2403 -128 conicto
1600 -128 1184 372 conicto
768 872 768 1834 conicto
2695 4800 moveto
2695 4800 lineto
end_ol grestore 
gsave 26.921307 13.000000 translate 0.035278 -0.035278 scale
start_ol
1536 6016 moveto
1536 4672 lineto
3136 4672 lineto
3136 4096 lineto
1536 4096 lineto
1536 1543 lineto
1536 968 1694 804 conicto
1853 640 2338 640 conicto
3136 640 lineto
3136 0 lineto
2338 0 lineto
1446 0 1107 332 conicto
768 665 768 1543 conicto
768 4096 lineto
192 4096 lineto
192 4672 lineto
768 4672 lineto
768 6016 lineto
1536 6016 lineto
end_ol grestore 
gsave 27.363393 13.000000 translate 0.035278 -0.035278 scale
start_ol
4736 2536 moveto
4736 2176 lineto
1280 2176 lineto
1329 1363 1745 937 conicto
2162 512 2906 512 conicto
3337 512 3741 624 conicto
4146 736 4544 960 conicto
4544 256 lineto
4136 68 3708 -30 conicto
3280 -128 2840 -128 conicto
1736 -128 1092 525 conicto
448 1179 448 2294 conicto
448 3446 1061 4123 conicto
1675 4800 2716 4800 conicto
3650 4800 4193 4191 conicto
4736 3582 4736 2536 conicto
3968 2752 moveto
3960 3394 3625 3777 conicto
3290 4160 2738 4160 conicto
2112 4160 1736 3790 conicto
1361 3420 1304 2748 conicto
3968 2752 lineto
end_ol grestore 
gsave 28.057742 13.000000 translate 0.035278 -0.035278 scale
start_ol
768 4672 moveto
1536 4672 lineto
1536 0 lineto
768 0 lineto
768 4672 lineto
768 6464 moveto
1536 6464 lineto
1536 5504 lineto
768 5504 lineto
768 6464 lineto
end_ol grestore 
gsave 28.372447 13.000000 translate 0.035278 -0.035278 scale
start_ol
768 6464 moveto
1536 6464 lineto
1536 0 lineto
768 0 lineto
768 6464 lineto
end_ol grestore 
gsave 28.687153 13.000000 translate 0.035278 -0.035278 scale
start_ol
768 6464 moveto
1536 6464 lineto
1536 0 lineto
768 0 lineto
768 6464 lineto
end_ol grestore 
gsave 29.001858 13.000000 translate 0.035278 -0.035278 scale
start_ol
4736 2536 moveto
4736 2176 lineto
1280 2176 lineto
1329 1363 1745 937 conicto
2162 512 2906 512 conicto
3337 512 3741 624 conicto
4146 736 4544 960 conicto
4544 256 lineto
4136 68 3708 -30 conicto
3280 -128 2840 -128 conicto
1736 -128 1092 525 conicto
448 1179 448 2294 conicto
448 3446 1061 4123 conicto
1675 4800 2716 4800 conicto
3650 4800 4193 4191 conicto
4736 3582 4736 2536 conicto
3968 2752 moveto
3960 3394 3625 3777 conicto
3290 4160 2738 4160 conicto
2112 4160 1736 3790 conicto
1361 3420 1304 2748 conicto
3968 2752 lineto
end_ol grestore 
gsave 29.696207 13.000000 translate 0.035278 -0.035278 scale
start_ol
3712 4544 moveto
3712 3840 lineto
3393 4000 3049 4080 conicto
2705 4160 2337 4160 conicto
1777 4160 1496 3985 conicto
1216 3810 1216 3459 conicto
1216 3192 1418 3040 conicto
1620 2888 2231 2750 conicto
2491 2691 lineto
3293 2514 3630 2192 conicto
3968 1871 3968 1294 conicto
3968 638 3451 255 conicto
2934 -128 2029 -128 conicto
1653 -128 1244 -48 conicto
836 32 384 192 conicto
384 960 lineto
815 736 1233 624 conicto
1651 512 2060 512 conicto
2609 512 2904 700 conicto
3200 888 3200 1230 conicto
3200 1547 2991 1716 conicto
2783 1885 2078 2041 conicto
1814 2104 lineto
1091 2254 769 2565 conicto
448 2877 448 3421 conicto
448 4081 912 4440 conicto
1376 4800 2229 4800 conicto
2652 4800 3024 4736 conicto
3397 4672 3712 4544 conicto
end_ol grestore 
showpage
