%!PS-Adobe-2.0 EPSF-2.0
%%Title: /data/dehos/documents_travail/enseignement_2014-2015/L3Info_CPP/TP/sujets_latex/dessins/L3Info_CPP_TP9_0.dia
%%Creator: Dia v0.97.2
%%CreationDate: Thu Jun 12 00:17:07 2014
%%For: dehos
%%Orientation: Portrait
%%Magnification: 1.0000
%%BoundingBox: 0 0 961 698
%%BeginSetup
%%EndSetup
%%EndComments
%%BeginProlog
[ /.notdef /.notdef /.notdef /.notdef /.notdef /.notdef /.notdef /.notdef /.notdef /.notdef
/.notdef /.notdef /.notdef /.notdef /.notdef /.notdef /.notdef /.notdef /.notdef /.notdef
/.notdef /.notdef /.notdef /.notdef /.notdef /.notdef /.notdef /.notdef /.notdef /.notdef
/.notdef /.notdef /space /exclam /quotedbl /numbersign /dollar /percent /ampersand /quoteright
/parenleft /parenright /asterisk /plus /comma /hyphen /period /slash /zero /one
/two /three /four /five /six /seven /eight /nine /colon /semicolon
/less /equal /greater /question /at /A /B /C /D /E
/F /G /H /I /J /K /L /M /N /O
/P /Q /R /S /T /U /V /W /X /Y
/Z /bracketleft /backslash /bracketright /asciicircum /underscore /quoteleft /a /b /c
/d /e /f /g /h /i /j /k /l /m
/n /o /p /q /r /s /t /u /v /w
/x /y /z /braceleft /bar /braceright /asciitilde /.notdef /.notdef /.notdef
/.notdef /.notdef /.notdef /.notdef /.notdef /.notdef /.notdef /.notdef /.notdef /.notdef
/.notdef /.notdef /.notdef /.notdef /.notdef /.notdef /.notdef /.notdef /.notdef /.notdef
/.notdef /.notdef /.notdef /.notdef /.notdef /.notdef /.notdef /.notdef /.notdef /.notdef
/space /exclamdown /cent /sterling /currency /yen /brokenbar /section /dieresis /copyright
/ordfeminine /guillemotleft /logicalnot /hyphen /registered /macron /degree /plusminus /twosuperior /threesuperior
/acute /mu /paragraph /periodcentered /cedilla /onesuperior /ordmasculine /guillemotright /onequarter /onehalf
/threequarters /questiondown /Agrave /Aacute /Acircumflex /Atilde /Adieresis /Aring /AE /Ccedilla
/Egrave /Eacute /Ecircumflex /Edieresis /Igrave /Iacute /Icircumflex /Idieresis /Eth /Ntilde
/Ograve /Oacute /Ocircumflex /Otilde /Odieresis /multiply /Oslash /Ugrave /Uacute /Ucircumflex
/Udieresis /Yacute /Thorn /germandbls /agrave /aacute /acircumflex /atilde /adieresis /aring
/ae /ccedilla /egrave /eacute /ecircumflex /edieresis /igrave /iacute /icircumflex /idieresis
/eth /ntilde /ograve /oacute /ocircumflex /otilde /odieresis /divide /oslash /ugrave
/uacute /ucircumflex /udieresis /yacute /thorn /ydieresis] /isolatin1encoding exch def
/cp {closepath} bind def
/c {curveto} bind def
/f {fill} bind def
/a {arc} bind def
/ef {eofill} bind def
/ex {exch} bind def
/gr {grestore} bind def
/gs {gsave} bind def
/sa {save} bind def
/rs {restore} bind def
/l {lineto} bind def
/m {moveto} bind def
/rm {rmoveto} bind def
/n {newpath} bind def
/s {stroke} bind def
/sh {show} bind def
/slc {setlinecap} bind def
/slj {setlinejoin} bind def
/slw {setlinewidth} bind def
/srgb {setrgbcolor} bind def
/rot {rotate} bind def
/sc {scale} bind def
/sd {setdash} bind def
/ff {findfont} bind def
/sf {setfont} bind def
/scf {scalefont} bind def
/sw {stringwidth pop} bind def
/tr {translate} bind def

/ellipsedict 8 dict def
ellipsedict /mtrx matrix put
/ellipse
{ ellipsedict begin
   /endangle exch def
   /startangle exch def
   /yrad exch def
   /xrad exch def
   /y exch def
   /x exch def   /savematrix mtrx currentmatrix def
   x y tr xrad yrad sc
   0 0 1 startangle endangle arc
   savematrix setmatrix
   end
} def

/mergeprocs {
dup length
3 -1 roll
dup
length
dup
5 1 roll
3 -1 roll
add
array cvx
dup
3 -1 roll
0 exch
putinterval
dup
4 2 roll
putinterval
} bind def
/Times-Roman-latin1
    /Times-Roman findfont
    dup length dict begin
	{1 index /FID ne {def} {pop pop} ifelse} forall
	/Encoding isolatin1encoding def
    currentdict end
definefont pop
/Times-Italic-latin1
    /Times-Italic findfont
    dup length dict begin
	{1 index /FID ne {def} {pop pop} ifelse} forall
	/Encoding isolatin1encoding def
    currentdict end
definefont pop
/Times-Bold-latin1
    /Times-Bold findfont
    dup length dict begin
	{1 index /FID ne {def} {pop pop} ifelse} forall
	/Encoding isolatin1encoding def
    currentdict end
definefont pop
/Times-BoldItalic-latin1
    /Times-BoldItalic findfont
    dup length dict begin
	{1 index /FID ne {def} {pop pop} ifelse} forall
	/Encoding isolatin1encoding def
    currentdict end
definefont pop
/AvantGarde-Gothic-latin1
    /AvantGarde-Gothic findfont
    dup length dict begin
	{1 index /FID ne {def} {pop pop} ifelse} forall
	/Encoding isolatin1encoding def
    currentdict end
definefont pop
/AvantGarde-BookOblique-latin1
    /AvantGarde-BookOblique findfont
    dup length dict begin
	{1 index /FID ne {def} {pop pop} ifelse} forall
	/Encoding isolatin1encoding def
    currentdict end
definefont pop
/AvantGarde-Demi-latin1
    /AvantGarde-Demi findfont
    dup length dict begin
	{1 index /FID ne {def} {pop pop} ifelse} forall
	/Encoding isolatin1encoding def
    currentdict end
definefont pop
/AvantGarde-DemiOblique-latin1
    /AvantGarde-DemiOblique findfont
    dup length dict begin
	{1 index /FID ne {def} {pop pop} ifelse} forall
	/Encoding isolatin1encoding def
    currentdict end
definefont pop
/Bookman-Light-latin1
    /Bookman-Light findfont
    dup length dict begin
	{1 index /FID ne {def} {pop pop} ifelse} forall
	/Encoding isolatin1encoding def
    currentdict end
definefont pop
/Bookman-LightItalic-latin1
    /Bookman-LightItalic findfont
    dup length dict begin
	{1 index /FID ne {def} {pop pop} ifelse} forall
	/Encoding isolatin1encoding def
    currentdict end
definefont pop
/Bookman-Demi-latin1
    /Bookman-Demi findfont
    dup length dict begin
	{1 index /FID ne {def} {pop pop} ifelse} forall
	/Encoding isolatin1encoding def
    currentdict end
definefont pop
/Bookman-DemiItalic-latin1
    /Bookman-DemiItalic findfont
    dup length dict begin
	{1 index /FID ne {def} {pop pop} ifelse} forall
	/Encoding isolatin1encoding def
    currentdict end
definefont pop
/Courier-latin1
    /Courier findfont
    dup length dict begin
	{1 index /FID ne {def} {pop pop} ifelse} forall
	/Encoding isolatin1encoding def
    currentdict end
definefont pop
/Courier-Oblique-latin1
    /Courier-Oblique findfont
    dup length dict begin
	{1 index /FID ne {def} {pop pop} ifelse} forall
	/Encoding isolatin1encoding def
    currentdict end
definefont pop
/Courier-Bold-latin1
    /Courier-Bold findfont
    dup length dict begin
	{1 index /FID ne {def} {pop pop} ifelse} forall
	/Encoding isolatin1encoding def
    currentdict end
definefont pop
/Courier-BoldOblique-latin1
    /Courier-BoldOblique findfont
    dup length dict begin
	{1 index /FID ne {def} {pop pop} ifelse} forall
	/Encoding isolatin1encoding def
    currentdict end
definefont pop
/Helvetica-latin1
    /Helvetica findfont
    dup length dict begin
	{1 index /FID ne {def} {pop pop} ifelse} forall
	/Encoding isolatin1encoding def
    currentdict end
definefont pop
/Helvetica-Oblique-latin1
    /Helvetica-Oblique findfont
    dup length dict begin
	{1 index /FID ne {def} {pop pop} ifelse} forall
	/Encoding isolatin1encoding def
    currentdict end
definefont pop
/Helvetica-Bold-latin1
    /Helvetica-Bold findfont
    dup length dict begin
	{1 index /FID ne {def} {pop pop} ifelse} forall
	/Encoding isolatin1encoding def
    currentdict end
definefont pop
/Helvetica-BoldOblique-latin1
    /Helvetica-BoldOblique findfont
    dup length dict begin
	{1 index /FID ne {def} {pop pop} ifelse} forall
	/Encoding isolatin1encoding def
    currentdict end
definefont pop
/Helvetica-Narrow-latin1
    /Helvetica-Narrow findfont
    dup length dict begin
	{1 index /FID ne {def} {pop pop} ifelse} forall
	/Encoding isolatin1encoding def
    currentdict end
definefont pop
/Helvetica-Narrow-Oblique-latin1
    /Helvetica-Narrow-Oblique findfont
    dup length dict begin
	{1 index /FID ne {def} {pop pop} ifelse} forall
	/Encoding isolatin1encoding def
    currentdict end
definefont pop
/Helvetica-Narrow-Bold-latin1
    /Helvetica-Narrow-Bold findfont
    dup length dict begin
	{1 index /FID ne {def} {pop pop} ifelse} forall
	/Encoding isolatin1encoding def
    currentdict end
definefont pop
/Helvetica-Narrow-BoldOblique-latin1
    /Helvetica-Narrow-BoldOblique findfont
    dup length dict begin
	{1 index /FID ne {def} {pop pop} ifelse} forall
	/Encoding isolatin1encoding def
    currentdict end
definefont pop
/NewCenturySchlbk-Roman-latin1
    /NewCenturySchlbk-Roman findfont
    dup length dict begin
	{1 index /FID ne {def} {pop pop} ifelse} forall
	/Encoding isolatin1encoding def
    currentdict end
definefont pop
/NewCenturySchlbk-Italic-latin1
    /NewCenturySchlbk-Italic findfont
    dup length dict begin
	{1 index /FID ne {def} {pop pop} ifelse} forall
	/Encoding isolatin1encoding def
    currentdict end
definefont pop
/NewCenturySchlbk-Bold-latin1
    /NewCenturySchlbk-Bold findfont
    dup length dict begin
	{1 index /FID ne {def} {pop pop} ifelse} forall
	/Encoding isolatin1encoding def
    currentdict end
definefont pop
/NewCenturySchlbk-BoldItalic-latin1
    /NewCenturySchlbk-BoldItalic findfont
    dup length dict begin
	{1 index /FID ne {def} {pop pop} ifelse} forall
	/Encoding isolatin1encoding def
    currentdict end
definefont pop
/Palatino-Roman-latin1
    /Palatino-Roman findfont
    dup length dict begin
	{1 index /FID ne {def} {pop pop} ifelse} forall
	/Encoding isolatin1encoding def
    currentdict end
definefont pop
/Palatino-Italic-latin1
    /Palatino-Italic findfont
    dup length dict begin
	{1 index /FID ne {def} {pop pop} ifelse} forall
	/Encoding isolatin1encoding def
    currentdict end
definefont pop
/Palatino-Bold-latin1
    /Palatino-Bold findfont
    dup length dict begin
	{1 index /FID ne {def} {pop pop} ifelse} forall
	/Encoding isolatin1encoding def
    currentdict end
definefont pop
/Palatino-BoldItalic-latin1
    /Palatino-BoldItalic findfont
    dup length dict begin
	{1 index /FID ne {def} {pop pop} ifelse} forall
	/Encoding isolatin1encoding def
    currentdict end
definefont pop
/Symbol-latin1
    /Symbol findfont
definefont pop
/ZapfChancery-MediumItalic-latin1
    /ZapfChancery-MediumItalic findfont
    dup length dict begin
	{1 index /FID ne {def} {pop pop} ifelse} forall
	/Encoding isolatin1encoding def
    currentdict end
definefont pop
/ZapfDingbats-latin1
    /ZapfDingbats findfont
    dup length dict begin
	{1 index /FID ne {def} {pop pop} ifelse} forall
	/Encoding isolatin1encoding def
    currentdict end
definefont pop
28.346000 -28.346000 scale
6.050000 -23.550000 translate
%%EndProlog


0.100000 slw
[] 0 sd
1.000000 1.000000 1.000000 srgb
n -1.000000 -1.000000 m -1.000000 0.400000 l 26.520000 0.400000 l 26.520000 -1.000000 l f
0.000000 0.000000 0.000000 srgb
n -1.000000 -1.000000 m -1.000000 0.400000 l 26.520000 0.400000 l 26.520000 -1.000000 l cp s
/Helvetica-Bold-latin1 ff 0.700000 scf sf
(Controleur) dup sw 2 div 12.760000 ex sub -0.250000 m
 gs 1 -1 sc sh gr
1.000000 1.000000 1.000000 srgb
n -1.000000 0.400000 m -1.000000 3.600000 l 26.520000 3.600000 l 26.520000 0.400000 l f
0.000000 0.000000 0.000000 srgb
n -1.000000 0.400000 m -1.000000 3.600000 l 26.520000 3.600000 l 26.520000 0.400000 l cp s
/Courier-latin1 ff 0.700000 scf sf
(-_inventaire: Inventaire) -0.850000 1.050000 m
 gs 1 -1 sc sh gr
(-_vueGraphique: VueGraphique) -0.850000 2.050000 m
 gs 1 -1 sc sh gr
(-_vueConsole: VueConsole) -0.850000 3.050000 m
 gs 1 -1 sc sh gr
1.000000 1.000000 1.000000 srgb
n -1.000000 3.600000 m -1.000000 6.800000 l 26.520000 6.800000 l 26.520000 3.600000 l f
0.000000 0.000000 0.000000 srgb
n -1.000000 3.600000 m -1.000000 6.800000 l 26.520000 6.800000 l 26.520000 3.600000 l cp s
(+run\(\): void) -0.850000 4.250000 m
 gs 1 -1 sc sh gr
(+<<const>> getTexte\(\): std::string) -0.850000 5.250000 m
 gs 1 -1 sc sh gr
(+chargerInventaire\(nomFichier:const std::string &\): void) -0.850000 6.250000 m
 gs 1 -1 sc sh gr
0.100000 slw
[] 0 sd
1.000000 1.000000 1.000000 srgb
n -3.000000 10.000000 m -3.000000 11.400000 l 11.492500 11.400000 l 11.492500 10.000000 l f
0.000000 0.000000 0.000000 srgb
n -3.000000 10.000000 m -3.000000 11.400000 l 11.492500 11.400000 l 11.492500 10.000000 l cp s
/Helvetica-BoldOblique-latin1 ff 0.700000 scf sf
(Vue) dup sw 2 div 4.246250 ex sub 10.750000 m
 gs 1 -1 sc sh gr
1.000000 1.000000 1.000000 srgb
n -3.000000 11.400000 m -3.000000 12.600000 l 11.492500 12.600000 l 11.492500 11.400000 l f
0.000000 0.000000 0.000000 srgb
n -3.000000 11.400000 m -3.000000 12.600000 l 11.492500 12.600000 l 11.492500 11.400000 l cp s
/Courier-latin1 ff 0.700000 scf sf
(-_refControleur: Controleur &) -2.850000 12.050000 m
 gs 1 -1 sc sh gr
1.000000 1.000000 1.000000 srgb
n -3.000000 12.600000 m -3.000000 14.800000 l 11.492500 14.800000 l 11.492500 12.600000 l f
0.000000 0.000000 0.000000 srgb
n -3.000000 12.600000 m -3.000000 14.800000 l 11.492500 14.800000 l 11.492500 12.600000 l cp s
/Courier-BoldOblique-latin1 ff 0.700000 scf sf
(+run\(\): void) -2.850000 13.250000 m
 gs 1 -1 sc sh gr
(+actualiser\(\): void) -2.850000 14.250000 m
 gs 1 -1 sc sh gr
0.100000 slw
[] 0 sd
1.000000 1.000000 1.000000 srgb
n 5.000000 18.500000 m 5.000000 19.900000 l 16.115000 19.900000 l 16.115000 18.500000 l f
0.000000 0.000000 0.000000 srgb
n 5.000000 18.500000 m 5.000000 19.900000 l 16.115000 19.900000 l 16.115000 18.500000 l cp s
/Helvetica-Bold-latin1 ff 0.700000 scf sf
(VueGraphique) dup sw 2 div 10.557500 ex sub 19.250000 m
 gs 1 -1 sc sh gr
1.000000 1.000000 1.000000 srgb
n 5.000000 19.900000 m 5.000000 20.300000 l 16.115000 20.300000 l 16.115000 19.900000 l f
0.000000 0.000000 0.000000 srgb
n 5.000000 19.900000 m 5.000000 20.300000 l 16.115000 20.300000 l 16.115000 19.900000 l cp s
1.000000 1.000000 1.000000 srgb
n 5.000000 20.300000 m 5.000000 23.500000 l 16.115000 23.500000 l 16.115000 20.300000 l f
0.000000 0.000000 0.000000 srgb
n 5.000000 20.300000 m 5.000000 23.500000 l 16.115000 23.500000 l 16.115000 20.300000 l cp s
/Courier-latin1 ff 0.700000 scf sf
(+run\(\): void) 5.150000 20.950000 m
 gs 1 -1 sc sh gr
(+actualiser\(\): void) 5.150000 21.950000 m
 gs 1 -1 sc sh gr
(+ouvrirFichier\(\): void) 5.150000 22.950000 m
 gs 1 -1 sc sh gr
0.100000 slw
[] 0 sd
0 slj
0 slc
n 4.246250 15.711803 m 4.246250 17.050000 l 10.557500 17.050000 l 10.557500 18.500000 l s
0 slj
1.000000 1.000000 1.000000 srgb
n 4.646250 15.711803 m 4.246250 14.911803 l 3.846250 15.711803 l ef
0.100000 slw
[] 0 sd
0 slj
0.000000 0.000000 0.000000 srgb
n 4.646250 15.711803 m 4.246250 14.911803 l 3.846250 15.711803 l cp s
/Courier-latin1 ff 0.560000 scf sf
0.100000 slw
[] 0 sd
1.000000 1.000000 1.000000 srgb
n 19.831250 10.000000 m 19.831250 11.400000 l 24.968750 11.400000 l 24.968750 10.000000 l f
0.000000 0.000000 0.000000 srgb
n 19.831250 10.000000 m 19.831250 11.400000 l 24.968750 11.400000 l 24.968750 10.000000 l cp s
/Helvetica-Bold-latin1 ff 0.700000 scf sf
(Inventaire) dup sw 2 div 22.400000 ex sub 10.750000 m
 gs 1 -1 sc sh gr
1.000000 1.000000 1.000000 srgb
n 19.831250 11.400000 m 19.831250 11.800000 l 24.968750 11.800000 l 24.968750 11.400000 l f
0.000000 0.000000 0.000000 srgb
n 19.831250 11.400000 m 19.831250 11.800000 l 24.968750 11.800000 l 24.968750 11.400000 l cp s
1.000000 1.000000 1.000000 srgb
n 19.831250 11.800000 m 19.831250 12.200000 l 24.968750 12.200000 l 24.968750 11.800000 l f
0.000000 0.000000 0.000000 srgb
n 19.831250 11.800000 m 19.831250 12.200000 l 24.968750 12.200000 l 24.968750 11.800000 l cp s
0.100000 slw
[] 0 sd
1.000000 1.000000 1.000000 srgb
n 20.138750 20.000000 m 20.138750 21.400000 l 24.661250 21.400000 l 24.661250 20.000000 l f
0.000000 0.000000 0.000000 srgb
n 20.138750 20.000000 m 20.138750 21.400000 l 24.661250 21.400000 l 24.661250 20.000000 l cp s
/Helvetica-Bold-latin1 ff 0.700000 scf sf
(Bouteille) dup sw 2 div 22.400000 ex sub 20.750000 m
 gs 1 -1 sc sh gr
1.000000 1.000000 1.000000 srgb
n 20.138750 21.400000 m 20.138750 21.800000 l 24.661250 21.800000 l 24.661250 21.400000 l f
0.000000 0.000000 0.000000 srgb
n 20.138750 21.400000 m 20.138750 21.800000 l 24.661250 21.800000 l 24.661250 21.400000 l cp s
1.000000 1.000000 1.000000 srgb
n 20.138750 21.800000 m 20.138750 22.200000 l 24.661250 22.200000 l 24.661250 21.800000 l f
0.000000 0.000000 0.000000 srgb
n 20.138750 21.800000 m 20.138750 22.200000 l 24.661250 22.200000 l 24.661250 21.800000 l cp s
0.100000 slw
[] 0 sd
0 slj
0 slc
n 22.400000 18.508737 m 22.400000 19.000000 l 22.400000 19.000000 l 22.400000 19.950537 l s
[] 0 sd
0 slj
0 slc
1.000000 1.000000 1.000000 srgb
n 22.400000 17.250159 m 22.640000 17.950159 l 22.400000 18.650159 l 22.160000 17.950159 l ef
0.100000 slw
[] 0 sd
0 slj
0 slc
0.000000 0.000000 0.000000 srgb
n 22.400000 17.250159 m 22.640000 17.950159 l 22.400000 18.650159 l 22.160000 17.950159 l cp s
/Courier-latin1 ff 0.560000 scf sf
0.100000 slw
[] 0 sd
0 slj
0 slc
n 22.400000 8.258579 m 22.400000 9.000000 l 22.400000 9.000000 l 22.400000 9.950537 l s
[] 0 sd
0 slj
0 slc
1.000000 1.000000 1.000000 srgb
n 22.400000 7.000000 m 22.640000 7.700000 l 22.400000 8.400000 l 22.160000 7.700000 l ef
0.100000 slw
[] 0 sd
0 slj
0 slc
0.000000 0.000000 0.000000 srgb
n 22.400000 7.000000 m 22.640000 7.700000 l 22.400000 8.400000 l 22.160000 7.700000 l cp s
0.100000 slw
[] 0 sd
1.000000 1.000000 1.000000 srgb
n -6.000000 18.500000 m -6.000000 19.900000 l 3.667500 19.900000 l 3.667500 18.500000 l f
0.000000 0.000000 0.000000 srgb
n -6.000000 18.500000 m -6.000000 19.900000 l 3.667500 19.900000 l 3.667500 18.500000 l cp s
/Helvetica-Bold-latin1 ff 0.700000 scf sf
(VueConsole) dup sw 2 div -1.166250 ex sub 19.250000 m
 gs 1 -1 sc sh gr
1.000000 1.000000 1.000000 srgb
n -6.000000 19.900000 m -6.000000 20.300000 l 3.667500 20.300000 l 3.667500 19.900000 l f
0.000000 0.000000 0.000000 srgb
n -6.000000 19.900000 m -6.000000 20.300000 l 3.667500 20.300000 l 3.667500 19.900000 l cp s
1.000000 1.000000 1.000000 srgb
n -6.000000 20.300000 m -6.000000 22.500000 l 3.667500 22.500000 l 3.667500 20.300000 l f
0.000000 0.000000 0.000000 srgb
n -6.000000 20.300000 m -6.000000 22.500000 l 3.667500 22.500000 l 3.667500 20.300000 l cp s
/Courier-latin1 ff 0.700000 scf sf
(+run\(\): void) -5.850000 20.950000 m
 gs 1 -1 sc sh gr
(+actualiser\(\): void) -5.850000 21.950000 m
 gs 1 -1 sc sh gr
0.100000 slw
[] 0 sd
0 slj
0 slc
n 4.246250 15.762102 m 4.246250 17.050024 l -1.166250 17.050024 l -1.166250 18.449750 l s
0 slj
1.000000 1.000000 1.000000 srgb
n 4.646250 15.762102 m 4.246250 14.962102 l 3.846250 15.762102 l ef
0.100000 slw
[] 0 sd
0 slj
0.000000 0.000000 0.000000 srgb
n 4.646250 15.762102 m 4.246250 14.962102 l 3.846250 15.762102 l cp s
/Courier-latin1 ff 0.560000 scf sf
0.100000 slw
[] 0 sd
1.000000 1.000000 1.000000 srgb
n 17.000000 15.000000 m 17.000000 16.400000 l 27.800000 16.400000 l 27.800000 15.000000 l f
0.000000 0.000000 0.000000 srgb
n 17.000000 15.000000 m 17.000000 16.400000 l 27.800000 16.400000 l 27.800000 15.000000 l cp s
/Helvetica-Bold-latin1 ff 0.700000 scf sf
(std::vector<Bouteille>) dup sw 2 div 22.400000 ex sub 15.750000 m
 gs 1 -1 sc sh gr
1.000000 1.000000 1.000000 srgb
n 17.000000 16.400000 m 17.000000 16.800000 l 27.800000 16.800000 l 27.800000 16.400000 l f
0.000000 0.000000 0.000000 srgb
n 17.000000 16.400000 m 17.000000 16.800000 l 27.800000 16.800000 l 27.800000 16.400000 l cp s
1.000000 1.000000 1.000000 srgb
n 17.000000 16.800000 m 17.000000 17.200000 l 27.800000 17.200000 l 27.800000 16.800000 l f
0.000000 0.000000 0.000000 srgb
n 17.000000 16.800000 m 17.000000 17.200000 l 27.800000 17.200000 l 27.800000 16.800000 l cp s
0.100000 slw
[] 0 sd
0 slj
0 slc
n 5.000000 8.258579 m 5.000000 9.000000 l 5.000000 9.000000 l 5.000000 10.000000 l s
[] 0 sd
0 slj
0 slc
1.000000 1.000000 1.000000 srgb
n 5.000000 7.000000 m 5.240000 7.700000 l 5.000000 8.400000 l 4.760000 7.700000 l ef
0.100000 slw
[] 0 sd
0 slj
0 slc
0.000000 0.000000 0.000000 srgb
n 5.000000 7.000000 m 5.240000 7.700000 l 5.000000 8.400000 l 4.760000 7.700000 l cp s
/Courier-latin1 ff 0.560000 scf sf
0.100000 slw
[] 0 sd
0 slj
0 slc
n 22.400000 14.037916 m 22.400000 14.099719 l 22.400000 12.300281 l 22.400000 12.250281 l s
0 slj
1.000000 1.000000 1.000000 srgb
n 22.000000 14.037916 m 22.400000 14.837916 l 22.800000 14.037916 l ef
0.100000 slw
[] 0 sd
0 slj
0.000000 0.000000 0.000000 srgb
n 22.000000 14.037916 m 22.400000 14.837916 l 22.800000 14.037916 l cp s
/Courier-latin1 ff 0.560000 scf sf
showpage
